{
  "project_info": {
    "project_number": "831171764633",
    "project_id": "notes-app-cb6d2",
    "storage_bucket": "notes-app-cb6d2.appspot.com"
  },
  "client": [
    {
      "client_info": {
        "mobilesdk_app_id": "1:831171764633:android:2eefeeeca748c275613308",
        "android_client_info": {
          "package_name": "com.example.notesapp"
        }
      },
      "oauth_client": [],
      "api_key": [
        {
          "current_key": "AIzaSyABxVNbsPuIR6PfFfs1anTNUpNMjiKe9lo"
        }
      ],
      "services": {
        "appinvite_service": {
          "other_platform_oauth_client": []
        }
      }
    }
  ],
  "configuration_version": "1"
}